
G20
G90
G94
F0.50
G00 Z0.1000
M03 S10000
G00 X0.0575Y0.0575
G01 Z-0.0050
G01 X0.0575Y5.8480
G01 X5.8480Y5.8480
G01 X5.8480Y0.0575
G01 X0.0575Y0.0575
G01 X0.1200Y0.1200
G01 X0.1200Y5.7855
G01 X5.7855Y5.7855
G01 X5.7855Y0.1200
G01 X0.1200Y0.1200
G01 X0.1825Y0.1825
G01 X0.1825Y5.7230
G01 X5.7230Y5.7230
G01 X5.7230Y0.1825
G01 X0.1825Y0.1825
G01 X0.2450Y0.2450
G01 X0.2450Y5.6605
G01 X5.6605Y5.6605
G01 X5.6605Y0.2450
G01 X0.2450Y0.2450
G01 X0.3075Y0.3075
G01 X0.3075Y5.5980
G01 X5.5980Y5.5980
G01 X5.5980Y0.3075
G01 X0.3075Y0.3075
G01 X0.3700Y0.3700
G01 X0.3700Y5.5355
G01 X5.5355Y5.5355
G01 X5.5355Y0.3700
G01 X0.3700Y0.3700
G01 X0.4325Y0.4325
G01 X0.4325Y5.4730
G01 X5.4730Y5.4730
G01 X5.4730Y0.4325
G01 X0.4325Y0.4325
G01 X0.4950Y0.4950
G01 X0.4950Y5.4105
G01 X5.4105Y5.4105
G01 X5.4105Y0.4950
G01 X0.4950Y0.4950
G01 X0.5575Y0.5575
G01 X0.5575Y5.3480
G01 X5.3480Y5.3480
G01 X5.3480Y0.5575
G01 X0.5575Y0.5575
G01 X0.6200Y0.6200
G01 X0.6200Y5.2855
G01 X5.2855Y5.2855
G01 X5.2855Y0.6200
G01 X0.6200Y0.6200
G01 X0.6825Y0.6825
G01 X0.6825Y5.2230
G01 X5.2230Y5.2230
G01 X5.2230Y0.6825
G01 X0.6825Y0.6825
G01 X0.7450Y0.7450
G01 X0.7450Y5.1605
G01 X5.1605Y5.1605
G01 X5.1605Y0.7450
G01 X0.7450Y0.7450
G01 X0.8075Y0.8075
G01 X0.8075Y5.0980
G01 X5.0980Y5.0980
G01 X5.0980Y0.8075
G01 X0.8075Y0.8075
G01 X0.8700Y0.8700
G01 X0.8700Y5.0355
G01 X5.0355Y5.0355
G01 X5.0355Y0.8700
G01 X0.8700Y0.8700
G01 X0.9325Y0.9325
G01 X0.9325Y4.9730
G01 X4.9730Y4.9730
G01 X4.9730Y0.9325
G01 X0.9325Y0.9325
G01 X0.9950Y0.9950
G01 X0.9950Y4.9105
G01 X4.9105Y4.9105
G01 X4.9105Y0.9950
G01 X0.9950Y0.9950
G01 X1.0575Y1.0575
G01 X1.0575Y4.8480
G01 X4.8480Y4.8480
G01 X4.8480Y1.0575
G01 X1.0575Y1.0575
G01 X1.1200Y1.1200
G01 X1.1200Y4.7855
G01 X4.7855Y4.7855
G01 X4.7855Y1.1200
G01 X1.1200Y1.1200
G01 X1.1825Y1.1825
G01 X1.1825Y4.7230
G01 X4.7230Y4.7230
G01 X4.7230Y1.1825
G01 X1.1825Y1.1825
G01 X1.2450Y1.2450
G01 X1.2450Y4.6605
G01 X4.6605Y4.6605
G01 X4.6605Y1.2450
G01 X1.2450Y1.2450
G01 X1.3075Y1.3075
G01 X1.3075Y4.5980
G01 X4.5980Y4.5980
G01 X4.5980Y1.3075
G01 X1.3075Y1.3075
G01 X1.3700Y1.3700
G01 X1.3700Y4.5355
G01 X4.5355Y4.5355
G01 X4.5355Y1.3700
G01 X1.3700Y1.3700
G01 X1.4325Y1.4325
G01 X1.4325Y4.4730
G01 X4.4730Y4.4730
G01 X4.4730Y1.4325
G01 X1.4325Y1.4325
G01 X1.4950Y1.4950
G01 X1.4950Y4.4105
G01 X4.4105Y4.4105
G01 X4.4105Y1.4950
G01 X1.4950Y1.4950
G01 X1.5575Y1.5575
G01 X1.5575Y4.3480
G01 X4.3480Y4.3480
G01 X4.3480Y1.5575
G01 X1.5575Y1.5575
G01 X1.6200Y1.6200
G01 X1.6200Y4.2855
G01 X4.2855Y4.2855
G01 X4.2855Y1.6200
G01 X1.6200Y1.6200
G01 X1.6825Y1.6825
G01 X1.6825Y4.2230
G01 X4.2230Y4.2230
G01 X4.2230Y1.6825
G01 X1.6825Y1.6825
G01 X1.7450Y1.7450
G01 X1.7450Y4.1605
G01 X4.1605Y4.1605
G01 X4.1605Y1.7450
G01 X1.7450Y1.7450
G01 X1.8075Y1.8075
G01 X1.8075Y4.0980
G01 X4.0980Y4.0980
G01 X4.0980Y1.8075
G01 X1.8075Y1.8075
G01 X1.8700Y1.8700
G01 X1.8700Y4.0355
G01 X4.0355Y4.0355
G01 X4.0355Y1.8700
G01 X1.8700Y1.8700
G01 X1.9325Y1.9325
G01 X1.9325Y3.9730
G01 X3.9730Y3.9730
G01 X3.9730Y1.9325
G01 X1.9325Y1.9325
G01 X1.9950Y1.9950
G01 X1.9950Y3.9105
G01 X3.9105Y3.9105
G01 X3.9105Y1.9950
G01 X1.9950Y1.9950
G01 X2.0575Y2.0575
G01 X2.0575Y3.8480
G01 X3.8480Y3.8480
G01 X3.8480Y2.0575
G01 X2.0575Y2.0575
G01 X2.1200Y2.1200
G01 X2.1200Y3.7855
G01 X3.7855Y3.7855
G01 X3.7855Y2.1200
G01 X2.1200Y2.1200
G01 X2.1825Y2.1825
G01 X2.1825Y3.7230
G01 X3.7230Y3.7230
G01 X3.7230Y2.1825
G01 X2.1825Y2.1825
G01 X2.2450Y2.2450
G01 X2.2450Y3.6605
G01 X3.6605Y3.6605
G01 X3.6605Y2.2450
G01 X2.2450Y2.2450
G01 X2.3075Y2.3075
G01 X2.3075Y3.5980
G01 X3.5980Y3.5980
G01 X3.5980Y2.3075
G01 X2.3075Y2.3075
G01 X2.3700Y2.3700
G01 X2.3700Y3.5355
G01 X3.5355Y3.5355
G01 X3.5355Y2.3700
G01 X2.3700Y2.3700
G01 X2.4325Y2.4325
G01 X2.4325Y3.4730
G01 X3.4730Y3.4730
G01 X3.4730Y2.4325
G01 X2.4325Y2.4325
G01 X2.4950Y2.4950
G01 X2.4950Y3.4105
G01 X3.4105Y3.4105
G01 X3.4105Y2.4950
G01 X2.4950Y2.4950
G01 X2.5575Y2.5575
G01 X2.5575Y3.3480
G01 X3.3480Y3.3480
G01 X3.3480Y2.5575
G01 X2.5575Y2.5575
G01 X2.6200Y2.6200
G01 X2.6200Y3.2855
G01 X3.2855Y3.2855
G01 X3.2855Y2.6200
G01 X2.6200Y2.6200
G01 X2.6825Y2.6825
G01 X2.6825Y3.2230
G01 X3.2230Y3.2230
G01 X3.2230Y2.6825
G01 X2.6825Y2.6825
G01 X2.7450Y2.7450
G01 X2.7450Y3.1605
G01 X3.1605Y3.1605
G01 X3.1605Y2.7450
G01 X2.7450Y2.7450
G01 X2.8075Y2.8075
G01 X2.8075Y3.0980
G01 X3.0980Y3.0980
G01 X3.0980Y2.8075
G01 X2.8075Y2.8075
G01 X2.8700Y2.8700
G01 X2.8700Y3.0355
G01 X3.0355Y3.0355
G01 X3.0355Y2.8700
G01 X2.8700Y2.8700
G01 X2.9325Y2.9325
G01 X2.9325Y2.9730
G01 X2.9730Y2.9730
G01 X2.9730Y2.9325
G01 X2.9325Y2.9325
G00 Z0.5000
G00 Z0.5000
G00 X0Y0
M05
